<?xml version="1.0" encoding="UTF-8"?>
<svg width="81px" height="47px" viewBox="0 0 81 47" version="1.1" xmlns="http://www.w3.org/2000/svg" xmlns:xlink="http://www.w3.org/1999/xlink">
    <!-- Generator: sketchtool 48 (47235) - http://www.bohemiancoding.com/sketch -->
    <title>ED64DB35-314B-45F4-9834-631CA83C88A9</title>
    <desc>Created with sketchtool.</desc>
    <defs></defs>
    <g id="Landing_experience_1" stroke="none" stroke-width="1" fill="none" fill-rule="evenodd" transform="translate(-419.000000, -1568.000000)">
        <path d="M428.3277,1588.98026 C428.348609,1588.64537 428.242457,1588.31851 428.02774,1588.05991 L422.659825,1581.55718 L430.830315,1579.44823 C431.155205,1579.36471 431.432647,1579.16313 431.613588,1578.88044 L436.146763,1571.77137 L440.679133,1578.88044 C440.860074,1579.16474 441.139126,1579.36632 441.463211,1579.44823 L449.366713,1581.48812 L435.81544,1584.98563 C435.375552,1585.09887 435.02895,1585.42412 434.889826,1585.85459 C434.749095,1586.28666 434.837555,1586.75246 435.126256,1587.10181 L443.210699,1596.89083 L436.628468,1594.30082 C436.31725,1594.17875 435.973864,1594.17875 435.662645,1594.30082 L427.809807,1597.39197 L428.3277,1588.98026 Z M447.334545,1598.29706 C447.356258,1597.96137 447.249301,1597.6345 447.036193,1597.37751 L438.483716,1587.0215 L451.497795,1583.66292 C451.822685,1583.5794 452.100932,1583.37782 452.281873,1583.09512 L459.500212,1571.77218 L466.720159,1583.09673 C466.901904,1583.37862 467.180151,1583.5794 467.503432,1583.66292 L480.516707,1587.0215 L471.965839,1597.37831 C471.75273,1597.63772 471.646578,1597.96377 471.667487,1598.29626 L472.49097,1611.69443 L459.986742,1606.77542 C459.681153,1606.65255 459.31525,1606.65335 459.016898,1606.77382 L446.511866,1611.69443 L447.334545,1598.29706 Z M491.189812,1597.39197 L483.336974,1594.30082 C483.180962,1594.23979 483.017713,1594.20927 482.85366,1594.20927 C482.689607,1594.20927 482.526358,1594.23979 482.369543,1594.30082 L475.789725,1596.89163 L483.872559,1587.10181 C484.162065,1586.75165 484.250525,1586.28585 484.109793,1585.85539 C483.969061,1585.42653 483.624871,1585.10128 483.184983,1584.98643 L469.632102,1581.48972 L477.537212,1579.44904 C477.862906,1579.36551 478.140349,1579.16394 478.32129,1578.88124 L482.854464,1571.77298 L487.386031,1578.88124 C487.566972,1579.16554 487.846023,1579.36712 488.170108,1579.44904 L496.341403,1581.55799 L490.971879,1588.05991 L490.971075,1588.06071 C490.759575,1588.31931 490.653423,1588.64537 490.672723,1588.98026 L491.189812,1597.39197 Z M499.934488,1580.39188 C499.794561,1579.96061 499.448762,1579.63616 499.010483,1579.52373 L489.334564,1577.02688 L483.967453,1568.61036 C483.725394,1568.22808 483.308827,1568 482.854464,1568 C482.40171,1568 481.985948,1568.22728 481.740672,1568.60956 L476.373561,1577.02768 L467.448748,1579.32937 L460.614004,1568.60956 C460.370337,1568.22808 459.95377,1568 459.500212,1568 C459.048261,1568 458.631695,1568.22728 458.386419,1568.60956 L451.551676,1579.32937 L442.626863,1577.02768 L437.259751,1568.60956 C437.016888,1568.22808 436.600322,1568 436.146763,1568 C435.693204,1568 435.277442,1568.22808 435.032167,1568.60956 L429.665859,1577.02688 L419.990744,1579.52292 C419.552465,1579.63616 419.206667,1579.96061 419.065131,1580.39188 C418.925203,1580.82395 419.013663,1581.28975 419.302364,1581.63749 L425.65862,1589.33765 L425.045833,1599.29773 C425.018491,1599.74988 425.221145,1600.17873 425.587852,1600.44456 C425.954559,1600.71039 426.42581,1600.76982 426.848005,1600.60518 L436.146763,1596.94624 L444.568158,1600.26065 L443.748697,1613.59939 C443.72055,1614.04672 443.928833,1614.48682 444.291519,1614.74702 C444.521516,1614.91407 444.792525,1615 445.065947,1615 C445.229196,1615 445.394053,1614.96948 445.550869,1614.90764 L459.501016,1609.41763 L473.447946,1614.90604 C473.851646,1615.06826 474.351043,1615.00883 474.711316,1614.74702 C475.077219,1614.4828 475.279873,1614.05394 475.254139,1613.59859 L474.433874,1600.25985 L482.856877,1596.94544 L492.154026,1600.60438 C492.578635,1600.77062 493.048277,1600.70878 493.413376,1600.44376 C493.779278,1600.17873 493.981932,1599.75068 493.955394,1599.29693 L493.342608,1589.33604 L499.698059,1581.63669 C499.985956,1581.28814 500.07522,1580.82234 499.934488,1580.39188 Z" id="Fill-1" fill="#FF5448"></path>
    </g>
</svg>