<?xml version="1.0" encoding="UTF-8"?>
<svg width="33px" height="39px" viewBox="0 0 33 39" version="1.1" xmlns="http://www.w3.org/2000/svg" xmlns:xlink="http://www.w3.org/1999/xlink">
    <!-- Generator: sketchtool 48 (47235) - http://www.bohemiancoding.com/sketch -->
    <title>98CFAB44-BFA2-41BA-8192-2165A0C2D9B3</title>
    <desc>Created with sketchtool.</desc>
    <defs>
        <polygon id="path-1" points="0 39 33 39 33 0 0 0"></polygon>
    </defs>
    <g id="Landing_experience_1" stroke="none" stroke-width="1" fill="none" fill-rule="evenodd" transform="translate(-592.000000, -1571.000000)">
        <g id="Page-1" transform="translate(592.000000, 1571.000000)">
            <mask id="mask-2" fill="white">
                <use xlink:href="#path-1"></use>
            </mask>
            <g id="Clip-2"></g>
            <path d="M20.8322642,30.3249076 C20.4339643,30.3306853 20.1153244,30.6571206 20.1196695,31.0557762 C20.1196695,31.6999806 19.9516593,32.2994083 19.6576415,32.8222827 C19.4505256,33.1631621 19.5591528,33.6065943 19.9024149,33.8131441 C20.2442287,34.0211383 20.6888763,33.9113636 20.8959922,33.5704842 C20.9046824,33.5574845 20.9119242,33.5430405 20.9206144,33.5300408 C21.3319496,32.7991722 21.5680328,31.9498625 21.5680328,31.0557762 C21.5723779,30.6571206 21.2522896,30.3292409 20.8525413,30.3249076 C20.8452995,30.3249076 20.8395061,30.3249076 20.8322642,30.3249076 Z M16.498761,26.0003611 C13.7077647,26.0003611 11.4294891,28.2724091 11.4294891,31.0557762 C11.4294891,33.8391434 13.7077647,36.1111914 16.498761,36.1111914 C17.2765321,36.1111914 18.0180942,35.934974 18.6799962,35.6200939 C19.0420871,35.4510986 19.1985103,35.0221105 19.0305002,34.659565 C18.8610417,34.2984639 18.4294294,34.1424683 18.0673385,34.3100192 C18.0629934,34.312908 18.0586484,34.3143524 18.0543033,34.3172412 C17.5835852,34.5411239 17.0578293,34.666787 16.498761,34.666787 C14.489881,34.666787 12.8778525,33.059165 12.8778525,31.0557762 C12.8778525,29.0523874 14.489881,27.4447654 16.498761,27.4447654 C17.7037993,27.4447654 18.7611046,28.0283048 19.4201099,28.9252799 C19.6561932,29.2488264 20.1095309,29.3196022 20.4339643,29.0841643 C20.7569493,28.8487264 20.8279192,28.3966279 20.5918359,28.0745257 C20.5918359,28.0745257 20.5918359,28.0745257 20.5918359,28.0730813 C19.6692284,26.8178939 18.1745174,26.0003611 16.498761,26.0003611 Z M16.498761,24.5559568 C20.1066342,24.5559568 23.0163962,27.4577651 23.0163962,31.0557762 C23.0163962,34.6537874 20.1066342,37.5555957 16.498761,37.5555957 C12.8908878,37.5555957 9.98112576,34.6537874 9.98112576,31.0557762 C9.98112576,27.4577651 12.8908878,24.5559568 16.498761,24.5559568 Z M10.4532922,7.22310491 L22.6760308,7.22310491 L16.6653228,17.3902669 C16.6653228,17.3902669 10.4532922,7.22310491 10.4532922,7.22310491 Z M27.7742699,1.44548763 L28.0204917,1.44548763 L31.3662111,4.78206161 L20.0458029,23.9521958 C18.9754624,23.4177662 17.7733208,23.1115525 16.498761,23.1115525 C15.9396927,23.1115525 15.3936597,23.170773 14.8664555,23.2805478 L27.7742699,1.44548763 Z M6.92507901,1.44548763 L26.0912717,1.44548763 L23.5305652,5.77870059 L9.57413564,5.77870059 C9.57413564,5.77870059 6.92507901,1.44548763 6.92507901,1.44548763 Z M4.97703026,1.44548763 L5.22904549,1.44548763 L15.8281687,18.8028944 L12.8691623,23.8077553 L1.6327592,4.78350601 L4.97703026,1.44548763 Z M4.67721904,0.00108330324 C4.48458671,0.00108330324 4.30064456,0.0776367323 4.1644984,0.211966334 L0.213363085,4.15663454 C-0.0212717837,4.38918363 -0.0676194121,4.75028471 0.100390741,5.03338796 L11.7235069,24.7133969 C9.79139015,26.1650232 8.53276237,28.4645149 8.53276237,31.0557762 C8.53276237,35.4352101 12.1073232,39 16.498761,39 C20.8887504,39 24.4647596,35.4352101 24.4647596,31.0557762 C24.4647596,28.4645149 23.2075802,26.1650232 21.2769118,24.7133969 L32.900028,5.03338796 C33.0680381,4.75028471 33.0202421,4.38918363 32.7870556,4.15663454 L28.8315752,0.211966334 C28.6968774,0.076192328 28.5129353,0.00108330324 28.3203029,0.00108330324 L27.4121791,0.00108330324 C27.3947987,-0.000361101081 27.3774184,-0.000361101081 27.3614864,0.00108330324 L5.65486432,0.00108330324 L5.6360356,0.00108330324 L5.56216907,0.00108330324 L4.67721904,0.00108330324 Z" id="Fill-1" fill="#000000" mask="url(#mask-2)"></path>
        </g>
    </g>
</svg>